3.37301587302	4.96031746032	7.7380952381	16.6666666667	25.9920634921	33.5317460317	40.0793650794	43.6507936508	43.8492063492	44.246031746	47.0238095238	47.8174603175	48.0158730159	47.2222222222	45.6349206349	45.6349206349	46.2301587302	47.2222222222	48.2142857143	47.2222222222	46.626984127	46.626984127	46.0317460317	47.0238095238	47.8174603175	47.619047619	49.6031746032	47.2222222222	47.2222222222	46.626984127	45.0396825397	46.626984127	47.2222222222	48.0158730159	48.0158730159	47.0238095238	47.619047619	48.8095238095	49.0079365079	47.619047619	49.4047619048	46.626984127	47.8174603175	48.4126984127	47.2222222222	48.0158730159	46.0317460317	45.6349206349	49.0079365079	48.4126984127	47.8174603175	48.2142857143	47.8174603175	48.6111111111	47.619047619	49.4047619048	47.8174603175	50.0	47.8174603175	50.0	47.4206349206	48.4126984127	48.0158730159	47.2222222222	48.0158730159	47.2222222222	49.6031746032	48.8095238095	48.4126984127	49.0079365079	48.6111111111	49.0079365079	50.7936507937	49.0079365079	48.0158730159	49.6031746032	48.0158730159	49.2063492063	49.6031746032	49.0079365079	46.8253968254	49.2063492063	47.8174603175	46.626984127	48.6111111111	47.8174603175	48.8095238095	46.626984127	47.4206349206	49.4047619048	48.0158730159	49.0079365079	49.8015873016	48.4126984127	49.2063492063	50.1984126984	47.4206349206	48.4126984127	48.0158730159	50.1984126984
5.22875816993	6.75381263617	10.0217864924	17.211328976	28.3224400871	37.4727668845	44.4444444444	49.0196078431	51.6339869281	50.1089324619	53.1590413943	54.6840958606	51.4161220044	54.2483660131	53.3769063181	55.5555555556	54.2483660131	54.4662309368	55.9912854031	54.9019607843	54.2483660131	54.9019607843	53.8126361656	55.5555555556	54.4662309368	54.0305010893	55.5555555556	56.4270152505	55.9912854031	55.1198257081	55.1198257081	55.7734204793	55.1198257081	55.5555555556	54.6840958606	56.4270152505	56.4270152505	55.9912854031	56.2091503268	56.4270152505	54.9019607843	56.862745098	54.9019607843	56.2091503268	55.1198257081	56.2091503268	55.5555555556	57.0806100218	56.4270152505	56.2091503268	55.7734204793	55.1198257081	55.5555555556	55.7734204793	55.5555555556	54.0305010893	56.6448801743	55.1198257081	55.7734204793	56.6448801743	56.862745098	53.8126361656	54.9019607843	54.9019607843	54.4662309368	55.9912854031	55.7734204793	54.4662309368	57.9520697168	57.0806100218	56.6448801743	55.3376906318	57.0806100218	56.6448801743	56.4270152505	55.3376906318	56.2091503268	55.5555555556	54.0305010893	56.6448801743	55.9912854031	55.5555555556	55.1198257081	57.2984749455	55.5555555556	56.2091503268	57.0806100218	56.6448801743	54.0305010893	54.6840958606	55.3376906318	56.2091503268	56.2091503268	55.9912854031	56.2091503268	55.3376906318	56.4270152505	55.3376906318	55.3376906318	56.2091503268
3.53773584906	5.42452830189	10.3773584906	18.1603773585	29.4811320755	38.679245283	45.2830188679	52.5943396226	54.7169811321	53.3018867925	53.0660377358	54.9528301887	56.6037735849	54.9528301887	53.5377358491	53.7735849057	56.3679245283	54.4811320755	54.9528301887	55.8962264151	56.1320754717	56.8396226415	54.9528301887	56.1320754717	55.6603773585	56.6037735849	55.1886792453	56.8396226415	56.6037735849	56.8396226415	56.3679245283	57.7830188679	58.0188679245	57.3113207547	58.2547169811	57.5471698113	58.0188679245	56.8396226415	59.1981132075	57.3113207547	57.3113207547	57.5471698113	58.0188679245	57.5471698113	56.8396226415	57.5471698113	55.8962264151	55.6603773585	56.8396226415	56.3679245283	55.1886792453	58.2547169811	57.0754716981	58.2547169811	55.8962264151	57.5471698113	55.4245283019	56.6037735849	57.7830188679	56.6037735849	55.8962264151	56.6037735849	57.3113207547	55.4245283019	58.4905660377	56.6037735849	58.4905660377	55.4245283019	58.2547169811	58.0188679245	57.0754716981	58.4905660377	57.5471698113	57.3113207547	55.6603773585	56.8396226415	55.1886792453	56.3679245283	58.2547169811	59.9056603774	56.8396226415	55.6603773585	55.8962264151	54.9528301887	57.3113207547	55.8962264151	57.0754716981	56.1320754717	56.3679245283	56.6037735849	56.3679245283	58.9622641509	55.4245283019	56.6037735849	58.2547169811	57.7830188679	57.3113207547	57.7830188679	59.4339622642	59.6698113208
4.03022670025	6.04534005038	9.5717884131	17.6322418136	31.4861460957	41.3098236776	49.3702770781	52.8967254408	54.6599496222	56.6750629723	57.6826196474	58.4382871537	55.919395466	59.4458438287	54.6599496222	56.4231738035	55.919395466	57.9345088161	55.4156171285	58.4382871537	56.1712846348	56.4231738035	56.6750629723	56.1712846348	56.9269521411	57.9345088161	57.6826196474	56.6750629723	57.1788413098	58.1863979849	57.1788413098	58.4382871537	56.4231738035	57.4307304786	58.6901763224	56.4231738035	58.6901763224	57.1788413098	57.6826196474	58.6901763224	58.1863979849	59.9496221662	57.6826196474	59.1939546599	56.6750629723	58.9420654912	57.4307304786	56.9269521411	55.4156171285	57.9345088161	58.6901763224	57.4307304786	58.1863979849	59.1939546599	60.7052896725	56.1712846348	58.1863979849	60.201511335	57.9345088161	58.9420654912	59.1939546599	58.1863979849	59.1939546599	55.6675062972	57.9345088161	58.1863979849	59.9496221662	57.9345088161	58.6901763224	59.4458438287	57.1788413098	57.4307304786	58.4382871537	57.1788413098	58.4382871537	58.6901763224	58.6901763224	58.4382871537	56.9269521411	57.9345088161	57.6826196474	57.1788413098	59.6977329975	57.6826196474	59.1939546599	57.6826196474	54.1561712846	56.4231738035	55.919395466	55.4156171285	56.9269521411	54.6599496222	57.9345088161	56.4231738035	57.6826196474	57.9345088161	58.9420654912	57.6826196474	59.1939546599	56.6750629723
4.53333333333	6.93333333333	15.7333333333	25.8666666667	33.6	41.3333333333	44.8	44.0	48.8	48.0	50.6666666667	48.2666666667	51.4666666667	51.4666666667	49.6	47.2	49.3333333333	49.8666666667	53.0666666667	51.2	49.6	53.0666666667	50.4	51.4666666667	49.6	50.9333333333	50.9333333333	49.8666666667	51.7333333333	52.0	51.4666666667	50.4	49.0666666667	50.4	49.6	50.4	48.2666666667	52.0	50.6666666667	49.8666666667	49.6	51.7333333333	52.0	51.7333333333	52.0	49.8666666667	50.4	50.4	49.6	50.9333333333	50.9333333333	50.6666666667	50.9333333333	50.9333333333	50.4	50.1333333333	50.4	50.9333333333	51.2	50.4	52.2666666667	52.0	50.4	50.6666666667	49.8666666667	51.4666666667	51.4666666667	50.4	52.2666666667	51.2	52.0	49.6	51.7333333333	50.4	52.5333333333	50.4	53.0666666667	50.1333333333	51.7333333333	49.3333333333	52.8	53.0666666667	52.5333333333	50.9333333333	50.4	50.9333333333	50.9333333333	51.2	50.4	51.7333333333	51.4666666667	52.5333333333	50.9333333333	52.5333333333	49.3333333333	50.9333333333	51.4666666667	52.5333333333	49.6	52.0