26.5873015873	35.7142857143	41.0714285714	48.4126984127	50.3968253968	52.9761904762	53.373015873	54.3650793651	55.5555555556	54.3650793651	54.5634920635	58.1349206349	56.9444444444	56.9444444444	57.1428571429	56.5476190476	57.3412698413	58.3333333333	57.7380952381	57.5396825397	58.1349206349	56.9444444444	57.3412698413	56.3492063492	57.5396825397	58.9285714286	56.5476190476	57.7380952381	58.5317460317	56.5476190476	57.5396825397	56.9444444444	56.9444444444	57.7380952381	57.7380952381	56.5476190476	56.5476190476	58.3333333333	56.746031746	58.3333333333	57.3412698413	58.1349206349	60.3174603175	58.1349206349	58.9285714286	58.7301587302	59.3253968254	58.9285714286	57.3412698413	57.1428571429	57.9365079365	58.1349206349	56.1507936508	58.5317460317	58.1349206349	57.3412698413	58.7301587302	57.7380952381	57.3412698413	57.5396825397	57.9365079365	57.5396825397	58.5317460317	58.5317460317	58.3333333333	58.1349206349	59.5238095238	57.9365079365	58.1349206349	59.126984127	57.5396825397	58.1349206349	57.5396825397	59.126984127	59.3253968254	58.1349206349	58.5317460317	58.1349206349	58.3333333333	58.3333333333	59.9206349206	57.9365079365	58.3333333333	56.1507936508	56.746031746	56.9444444444	56.3492063492	55.9523809524	57.7380952381	57.9365079365	55.753968254	58.9285714286	54.9603174603	58.1349206349	58.3333333333	57.1428571429	57.5396825397	58.1349206349	58.5317460317	56.746031746
24.8366013072	39.8692810458	44.6623093682	49.6732026144	55.1198257081	55.5555555556	57.5163398693	57.0806100218	56.6448801743	58.8235294118	58.605664488	58.605664488	58.1699346405	57.5163398693	57.9520697168	57.9520697168	59.6949891068	59.477124183	57.9520697168	58.3877995643	58.3877995643	59.0413943355	58.1699346405	59.0413943355	59.2592592593	59.477124183	59.0413943355	61.220043573	61.220043573	59.6949891068	60.5664488017	59.9128540305	60.1307189542	60.348583878	59.9128540305	60.348583878	60.348583878	59.2592592593	60.5664488017	62.091503268	61.8736383442	60.1307189542	60.1307189542	61.0021786492	61.4379084967	61.220043573	59.477124183	61.6557734205	60.348583878	60.1307189542	60.5664488017	61.8736383442	61.4379084967	58.605664488	61.220043573	60.5664488017	61.220043573	59.9128540305	61.4379084967	61.6557734205	61.6557734205	60.1307189542	61.220043573	59.9128540305	61.4379084967	58.8235294118	58.3877995643	58.3877995643	60.5664488017	60.348583878	60.348583878	61.220043573	60.5664488017	60.5664488017	59.9128540305	61.8736383442	60.7843137255	60.348583878	61.220043573	61.4379084967	60.1307189542	60.1307189542	60.7843137255	61.0021786492	62.3093681917	61.0021786492	60.1307189542	61.8736383442	61.220043573	59.9128540305	60.348583878	62.962962963	61.0021786492	59.6949891068	59.6949891068	61.220043573	60.348583878	60.1307189542	59.9128540305	61.0021786492
24.0566037736	40.3301886792	47.1698113208	53.7735849057	55.1886792453	59.1981132075	61.320754717	61.5566037736	59.9056603774	62.9716981132	62.5	61.320754717	62.7358490566	60.141509434	63.2075471698	62.9716981132	63.9150943396	63.9150943396	62.7358490566	64.6226415094	64.6226415094	63.2075471698	63.4433962264	63.2075471698	64.3867924528	63.2075471698	64.858490566	63.9150943396	64.6226415094	65.8018867925	64.1509433962	66.5094339623	63.9150943396	66.5094339623	64.6226415094	65.3301886792	65.5660377358	65.3301886792	65.5660377358	63.679245283	65.5660377358	65.5660377358	66.0377358491	65.5660377358	66.5094339623	64.3867924528	66.7452830189	66.2735849057	66.0377358491	65.0943396226	65.5660377358	66.2735849057	64.858490566	65.3301886792	66.7452830189	64.6226415094	64.6226415094	66.7452830189	66.0377358491	64.858490566	64.858490566	63.4433962264	63.9150943396	66.0377358491	66.5094339623	65.5660377358	65.5660377358	65.0943396226	64.858490566	62.9716981132	63.9150943396	65.8018867925	63.4433962264	65.5660377358	65.5660377358	64.858490566	65.8018867925	64.3867924528	65.0943396226	64.6226415094	64.858490566	66.2735849057	65.0943396226	64.858490566	64.6226415094	65.3301886792	67.9245283019	66.9811320755	66.9811320755	66.2735849057	66.7452830189	66.0377358491	67.2169811321	67.6886792453	66.2735849057	66.9811320755	66.0377358491	65.8018867925	63.679245283	64.1509433962
26.7002518892	43.0730478589	51.3853904282	57.6826196474	60.4534005038	63.476070529	64.7355163728	65.2392947103	64.9874055416	63.7279596977	64.2317380353	63.7279596977	63.2241813602	63.7279596977	64.483627204	65.7430730479	63.9798488665	64.7355163728	65.9949622166	65.4911838791	64.9874055416	66.4987405542	64.9874055416	65.7430730479	65.2392947103	64.7355163728	66.2468513854	64.7355163728	65.4911838791	64.9874055416	64.7355163728	65.2392947103	64.483627204	65.7430730479	64.9874055416	64.7355163728	65.4911838791	66.2468513854	64.9874055416	65.9949622166	65.9949622166	67.0025188917	63.9798488665	66.2468513854	64.483627204	64.9874055416	65.4911838791	65.7430730479	65.4911838791	65.2392947103	66.2468513854	65.7430730479	65.9949622166	64.9874055416	64.7355163728	64.7355163728	65.7430730479	66.2468513854	66.2468513854	65.7430730479	64.483627204	65.2392947103	65.9949622166	65.2392947103	65.4911838791	66.2468513854	66.2468513854	66.2468513854	66.2468513854	66.2468513854	64.9874055416	66.2468513854	65.7430730479	64.483627204	65.2392947103	64.9874055416	65.2392947103	64.7355163728	64.7355163728	61.9647355164	64.483627204	65.4911838791	63.7279596977	64.7355163728	63.7279596977	65.2392947103	63.2241813602	62.9722921914	63.9798488665	61.4609571788	61.9647355164	61.4609571788	62.7204030227	63.2241813602	63.476070529	62.4685138539	63.7279596977	61.4609571788	62.7204030227	63.476070529
27.4666666667	39.7333333333	50.9333333333	55.4666666667	58.4	60.0	60.8	60.0	61.8666666667	60.0	61.6	60.0	63.2	61.0666666667	61.6	60.5333333333	61.0666666667	60.2666666667	60.2666666667	62.4	60.0	60.8	61.6	62.1333333333	62.1333333333	63.7333333333	61.6	61.0666666667	60.8	59.4666666667	62.4	61.8666666667	62.1333333333	62.4	63.2	61.6	62.6666666667	62.1333333333	62.4	61.0666666667	61.6	61.0666666667	61.0666666667	61.3333333333	62.9333333333	62.4	60.5333333333	62.6666666667	62.4	61.3333333333	61.8666666667	62.1333333333	61.8666666667	61.6	61.8666666667	63.4666666667	61.8666666667	62.4	62.6666666667	61.6	60.8	62.1333333333	62.4	61.3333333333	61.3333333333	62.1333333333	62.4	62.4	62.4	63.7333333333	62.4	62.4	62.9333333333	61.8666666667	60.8	62.9333333333	60.5333333333	61.8666666667	60.0	61.3333333333	61.0666666667	61.0666666667	60.5333333333	59.4666666667	60.2666666667	58.6666666667	60.0	60.5333333333	61.3333333333	61.3333333333	60.8	60.8	61.6	61.8666666667	61.8666666667	61.3333333333	61.3333333333	61.8666666667	62.1333333333	61.8666666667